mypy   Collatz.py
Success: no issues found in 1 source file
pylint Collatz.py

--------------------------------------------------------------------
Your code has been rated at 10.00/10 (previous run: 10.00/10, +0.00)

mypy   TestCollatz.py
Success: no issues found in 1 source file
pylint TestCollatz.py

--------------------------------------------------------------------
Your code has been rated at 10.00/10 (previous run: 10.00/10, +0.00)

coverage run    --branch TestCollatz.py
coverage report -m
Name             Stmts   Miss Branch BrPart  Cover   Missing
------------------------------------------------------------
Collatz.py          13      0      2      0   100%
TestCollatz.py      30      0      0      0   100%
------------------------------------------------------------
TOTAL               43      0      2      0   100%
